TCGA tutorial
…
Some information on the Firehose Legacy data can be found here

Setting up the data

Import the counts file.

tcga_rna <- read_tsv("data/brca_tcga/data_RNA_Seq_v2_expression_median.txt")

tcga_rna

## # A tibble: 20,531 x 1,102
##    Hugo_Symbol Entrez_Gene_Id `TCGA-3C-AAAU-0 `TCGA-3C-AALI-0 `TCGA-3C-AALJ-0
##    <chr>                <dbl>            <dbl>            <dbl>            <dbl>
##  1 LOC1001304      100130426              0              0                0.907
##  2 UBE2Q2P3         100133144             16.4            9.27            11.6  
##  3 UBE2Q2P3         100134869             12.9           17.4              9.23 
##  4 HMGB1P1              10357             52.2           69.8            154.   
##  5 TIMM23               10431            408.           564.            1361.   
##  6 MOXD2               136542              0              0                0    
##  7 LOC155060           155060           1187.           516.             592.   
##  8 RNU12-2P             26823              0              1.09             0    
##  9 SSX9                280660              0              0.544            0    
## 10 LOC317712           317712              0              0                0    
## #  with 20,521 more rows, and 1,097 more variables: TCGA-3C-AALK-01 <dbl>,
## #   TCGA-4H-AAAK-01 <dbl>, TCGA-5L-AAT0-01 <dbl>, TCGA-5L-AAT1-01 <dbl>,
## #   TCGA-5T-A9QA-01 <dbl>, TCGA-A1-A0SB-01 <dbl>, TCGA-A1-A0SD-01 <dbl>,
## #   TCGA-A1-A0SE-01 <dbl>, TCGA-A1-A0SF-01 <dbl>, TCGA-A1-A0SG-01 <dbl>,
## #   TCGA-A1-A0SH-01 <dbl>, TCGA-A1-A0SI-01 <dbl>, TCGA-A1-A0SJ-01 <dbl>,
## #   TCGA-A1-A0SK-01 <dbl>, TCGA-A1-A0SM-01 <dbl>, TCGA-A1-A0SN-01 <dbl>,
## #   TCGA-A1-A0SO-01 <dbl>, TCGA-A1-A0SP-01 <dbl>, TCGA-A1-A0SQ-01 <dbl>,
## #   TCGA-A2-A04N-01 <dbl>, TCGA-A2-A04P-01 <dbl>, TCGA-A2-A04Q-01 <dbl>,
## #   TCGA-A2-A04R-01 <dbl>, TCGA-A2-A04T-01 <dbl>, TCGA-A2-A04U-01 <dbl>,
…
Convert to long format.

tcga_long <- tcga_rna %>%
    pivot_longer(cols=-c(Hugo_Symbol, Entrez_Gene_Id))

tcga_long

## # A tibble: 22,584,100 x 4
##    Hugo_Symbol  Entrez_Gene_Id name            value
##    <chr>                 <dbl> <chr>           <dbl>
##  1 LOC100130426      100130426 TCGA-3C-AAAU-01 0    
##  2 LOC100130426      100130426 TCGA-3C-AALI-01 0    
##  3 LOC100130426      100130426 TCGA-3C-AALJ-01 0.907
##  4 LOC100130426      100130426 TCGA-3C-AALK-01 0    
##  5 LOC100130426      100130426 TCGA-4H-AAAK-01 0    
##  6 LOC100130426      100130426 TCGA-5L-AAT0-01 0    
##  7 LOC100130426      100130426 TCGA-5L-AAT1-01 0    
##  8 LOC100130426      100130426 TCGA-5T-A9QA-01 0    
##  9 LOC100130426      100130426 TCGA-A1-A0SB-01 0    
## 10 LOC100130426      100130426 TCGA-A1-A0SD-01 0    
## #  with 22,584,090 more rows

Import the clinical patient information file. Use comment= to skip lines starting with #, header lines. Use guess_max= some big number greater than the expected number of rows so column types are correctly guessed.

tcga_clinical <- read_tsv("data/brca_tcga/data_bcr_clinical_data_patient.txt", comment = "#", guess_max=100000)

tcga_clinical

## # A tibble: 1,097 x 111
##    OTHER_PATIENT_ID           PATIENT_ID  FORM_COMPLETION_D PROSPECTIVE_COLLEC
##    <chr>                      <chr>       <chr>              <chr>              
##  1 6E7D5EC6-A469-467C-B748-2 TCGA-3C-AA 1/13/14            NO                 
##  2 55262FCB-1B01-4480-B322-3 TCGA-3C-AA 7/28/14            NO                 
##  3 427D0648-3F77-4FFC-B52C-8 TCGA-3C-AA 7/28/14            NO                 
##  4 C31900A4-5DCD-4022-97AC-6 TCGA-3C-AA 7/28/14            NO                 
##  5 6623FC5E-00BE-4476-967A-C TCGA-4H-AA 11/13/14           YES                
##  6 86C6F993-327F-4525-9983-2 TCGA-5L-AA 8/15/14            NO                 
##  7 16FC3677-0393-4ED1-AD3F-C TCGA-5L-AA 8/15/14            NO                 
##  8 2FD36838-5A83-433E-AC80-B TCGA-5T-A9 12/23/13           YES                
##  9 0045349c-69d9-4306-a403-c TCGA-A1-A0 6/30/11            NO                 
## 10 c462e422-eb8d-4daf-9897-2 TCGA-A1-A0 9/7/11             NO                 
## #  with 1,087 more rows, and 107 more variables:
## #   RETROSPECTIVE_COLLECTION <chr>, SEX <chr>, MENOPAUSE_STATUS <chr>,
## #   RACE <chr>, ETHNICITY <chr>, HISTORY_OTHER_MALIGNANCY <chr>,
## #   HISTORY_NEOADJUVANT_TRTYN <chr>, TUMOR_STATUS <chr>,
## #   RADIATION_TREATMENT_ADJUVANT <chr>, PHARMACEUTICAL_TX_ADJUVANT <chr>,
## #   HISTOLOGICAL_SUBTYPE <chr>, INITIAL_PATHOLOGIC_DX_YEAR <chr>, AGE <chr>,
## #   METHOD_OF_INITIAL_SAMPLE_PROCUREMENT <chr>,
## #   METHOD_OF_INITIAL_SAMPLE_PROCUREMENT_OTHER <chr>,
## #   SURGICAL_PROCEDURE_FIRST <chr>, FIRST_SURGICAL_PROCEDURE_OTHER <chr>,
…
Well also filter to only keep samples that are in our groups of interest.

groups <- c("HER2_pos", "HER2_low", "HER2_neg")

tcga_her2 <- tcga_clinical %>% 
    mutate(her2_group = case_when((HER2_IHC_SCORE == 3 | HER2_FISH_STATUS == "Positive") ~ "HER2_pos",
                             ((HER2_IHC_SCORE == 1 | HER2_IHC_SCORE == 2) & HER2_FISH_STATUS == "Negative") ~ "HER2_low",
                             HER2_IHC_SCORE == 0 ~ "HER2_neg"
                             )) %>%
    filter(her2_group %in% groups)

tcga_her2

## # A tibble: 420 x 112
##    OTHER_PATIENT_ID           PATIENT_ID  FORM_COMPLETION_D PROSPECTIVE_COLLEC
##    <chr>                      <chr>       <chr>              <chr>              
##  1 2FD36838-5A83-433E-AC80-B TCGA-5T-A9 12/23/13           YES                
##  2 c397e6c2-ba3a-4f5e-a258-c TCGA-A1-A0 12/6/10            NO                 
##  3 a6a863d9-b39d-4965-b47f-7 TCGA-A1-A0 12/6/10            NO                 
##  4 a2db9dd1-44d5-48b5-817c-a TCGA-A1-A0 12/6/10            NO                 
##  5 a5b44d66-c162-46b5-9df2-8 TCGA-A1-A0 12/6/10            NO                 
##  6 784de7ac-8424-42eb-83d4-a TCGA-A1-A0 12/6/10            NO                 
##  7 a9bb8159-32f0-454c-a946-b TCGA-A1-A0 12/6/10            NO                 
##  8 b5fba77b-1f50-4e71-95b2-5 TCGA-A2-A0 8/10/10            NO                 
##  9 f3a058b9-fb7f-4098-8f0e-8 TCGA-A2-A0 10/8/10            NO                 
## 10 b58ad350-5140-4fa8-bc2c-2 TCGA-A2-A0 8/9/10             NO                 
## #  with 410 more rows, and 108 more variables: RETROSPECTIVE_COLLECTION <chr>,
## #   SEX <chr>, MENOPAUSE_STATUS <chr>, RACE <chr>, ETHNICITY <chr>,
## #   HISTORY_OTHER_MALIGNANCY <chr>, HISTORY_NEOADJUVANT_TRTYN <chr>,
## #   TUMOR_STATUS <chr>, RADIATION_TREATMENT_ADJUVANT <chr>,
## #   PHARMACEUTICAL_TX_ADJUVANT <chr>, HISTOLOGICAL_SUBTYPE <chr>,
## #   INITIAL_PATHOLOGIC_DX_YEAR <chr>, AGE <chr>,
## #   METHOD_OF_INITIAL_SAMPLE_PROCUREMENT <chr>,
## #   METHOD_OF_INITIAL_SAMPLE_PROCUREMENT_OTHER <chr>,
## #   SURGICAL_PROCEDURE_FIRST <chr>, FIRST_SURGICAL_PROCEDURE_OTHER <chr>,
…
To add the her2 group information to the counts table, we need a column to match on thats present in both tables. The counts table has SAMPLE_ID but the patient information has PATIENT_ID. Well import the sample information table, that has both PATIENT_ID and SAMPLE_ID, and join the patient table to it. Then match to sample id in counts table.

tcga_sample <- read_tsv("data/brca_tcga/data_bcr_clinical_data_sample.txt", comment = "#", guess_max=100000)

tcga_sample

## # A tibble: 1,108 x 26
##    PATIENT_ID  SAMPLE_ID   OTHER_SAMPLE_ID    SPECIMEN_CURRENT DAYS_TO_COLLECT
##    <chr>       <chr>       <chr>              <chr>             <chr>           
##  1 TCGA-AR-A1 TCGA-AR-A1 5fa9998b-deff-493 [Not Available]   1416            
##  2 TCGA-BH-A1 TCGA-BH-A1 9d501ca9-f50d-45f [Not Available]   4330            
##  3 TCGA-BH-A1 TCGA-BH-A1 aa1037f4-1414-4e0 [Not Available]   4242            
##  4 TCGA-BH-A1 TCGA-BH-A1 2190d984-3941-41d [Not Available]   4137            
##  5 TCGA-BH-A1 TCGA-BH-A1 73af0f78-cc37-43f [Not Available]   4106            
##  6 TCGA-BH-A1 TCGA-BH-A1 29ac24fb-0065-47f [Not Available]   4103            
##  7 TCGA-BH-A1 TCGA-BH-A1 50463a25-4292-4bc [Not Available]   4230            
##  8 TCGA-BH-A1 TCGA-BH-A1 f754aa5f-49c8-4e8 [Not Available]   3879            
##  9 TCGA-C8-A1 TCGA-C8-A1 f2a49aa7-b756-4ea [Not Available]   109             
## 10 TCGA-C8-A1 TCGA-C8-A1 bed56886-f4fe-491 [Not Available]   122             
## #  with 1,098 more rows, and 21 more variables:
## #   DAYS_TO_SPECIMEN_COLLECTION <chr>, SPECIMEN_FREEZING_METHOD <chr>,
## #   SAMPLE_INITIAL_WEIGHT <chr>, SPECIMEN_SECOND_LONGEST_DIMENSION <chr>,
## #   IS_FFPE <chr>, LONGEST_DIMENSION <chr>, METHOD_OF_SAMPLE_PROCUREMENT <chr>,
## #   OCT_EMBEDDED <chr>, OTHER_METHOD_OF_SAMPLE_PROCUREMENT <chr>,
## #   PATHOLOGY_REPORT_FILE_NAME <chr>, PATHOLOGY_REPORT_UUID <chr>,
## #   SAMPLE_TYPE <chr>, SAMPLE_TYPE_ID <dbl>, SHORTEST_DIMENSION <chr>,
## #   TIME_BETWEEN_CLAMPING_AND_FREEZING <chr>,
## #   TIME_BETWEEN_EXCISION_AND_FREEZING <chr>, VIAL_NUMBER <chr>,
## #   ONCOTREE_CODE <chr>, CANCER_TYPE <chr>, CANCER_TYPE_DETAILED <chr>,
## #   SOMATIC_STATUS <chr>

Keep just sample id and HER2 column to not have too big table.

# Join her2 table to sample table to get sample id
tcga_joined_sample <- inner_join(tcga_her2, tcga_sample, by = "PATIENT_ID") %>% 
    select(SAMPLE_ID, her2_group)

tcga_joined_sample

## # A tibble: 422 x 2
##    SAMPLE_ID       her2_group
##    <chr>           <chr>     
##  1 TCGA-5T-A9QA-01 HER2_low  
##  2 TCGA-A1-A0SE-01 HER2_low  
##  3 TCGA-A1-A0SH-01 HER2_low  
##  4 TCGA-A1-A0SJ-01 HER2_low  
##  5 TCGA-A1-A0SK-01 HER2_neg  
##  6 TCGA-A1-A0SM-01 HER2_pos  
##  7 TCGA-A1-A0SP-01 HER2_neg  
##  8 TCGA-A2-A04Q-01 HER2_low  
##  9 TCGA-A2-A04R-01 HER2_low  
## 10 TCGA-A2-A04T-01 HER2_low  
## #  with 412 more rows

# Join counts table to her2 status using sample id
tcga_joined <- inner_join(tcga_long, tcga_joined_sample, by = c("name" = "SAMPLE_ID"))

tcga_joined

## # A tibble: 8,664,082 x 5
##    Hugo_Symbol  Entrez_Gene_Id name            value her2_group
##    <chr>                 <dbl> <chr>           <dbl> <chr>     
##  1 LOC100130426      100130426 TCGA-5T-A9QA-01     0 HER2_low  
##  2 LOC100130426      100130426 TCGA-A1-A0SE-01     0 HER2_low  
##  3 LOC100130426      100130426 TCGA-A1-A0SH-01     0 HER2_low  
##  4 LOC100130426      100130426 TCGA-A1-A0SJ-01     0 HER2_low  
##  5 LOC100130426      100130426 TCGA-A1-A0SK-01     0 HER2_neg  
##  6 LOC100130426      100130426 TCGA-A1-A0SM-01     0 HER2_pos  
##  7 LOC100130426      100130426 TCGA-A1-A0SP-01     0 HER2_neg  
##  8 LOC100130426      100130426 TCGA-A2-A04Q-01     0 HER2_low  
##  9 LOC100130426      100130426 TCGA-A2-A04R-01     0 HER2_low  
## 10 LOC100130426      100130426 TCGA-A2-A04T-01     0 HER2_low  
## #  with 8,664,072 more rows
…
The peak on the left shows there are a lot of genes with zero/low counts. We should filter these genes.

Well use the tidybulk package to do the RNA-seq filtering and analysis. First we create a tidybulk tibble (table).

counts_tt <- tcga_joined %>% 
    mutate(Entrez_Gene_Id = as.character(Entrez_Gene_Id)) %>%
    tidybulk(.sample = name, .transcript = Entrez_Gene_Id, .abundance = value)

counts_tt

## # A tibble: 8,664,082 x 5
##    Hugo_Symbol  Entrez_Gene_Id name            value her2_group
##    <chr>        <chr>          <chr>           <dbl> <chr>     
##  1 LOC100130426 100130426      TCGA-5T-A9QA-01     0 HER2_low  
##  2 LOC100130426 100130426      TCGA-A1-A0SE-01     0 HER2_low  
##  3 LOC100130426 100130426      TCGA-A1-A0SH-01     0 HER2_low  
##  4 LOC100130426 100130426      TCGA-A1-A0SJ-01     0 HER2_low  
##  5 LOC100130426 100130426      TCGA-A1-A0SK-01     0 HER2_neg  
##  6 LOC100130426 100130426      TCGA-A1-A0SM-01     0 HER2_pos  
##  7 LOC100130426 100130426      TCGA-A1-A0SP-01     0 HER2_neg  
##  8 LOC100130426 100130426      TCGA-A2-A04Q-01     0 HER2_low  
##  9 LOC100130426 100130426      TCGA-A2-A04R-01     0 HER2_low  
## 10 LOC100130426 100130426      TCGA-A2-A04T-01     0 HER2_low  
## #  with 8,664,072 more rows
…
